Describtion of data
…
Rows: 62 Columns: 1948
── Column specification ────────────────────────────────────────────────────────
Delimiter: "\t"
chr    (6): ID_REF, Age_group, Dukes_stage, Gender, Location, DFS_label
dbl (1942): Age, No_stage, metastasis, DFS_event, Adj_Radio, Adj_Chem, DFS, ...

ℹ Use `spec()` to retrieve the full column specification for this data.
ℹ Specify the column types or set `show_col_types = FALSE` to quiet this message.

Inspect the dataset

data

# A tibble: 62 × 1,948
   ID_REF      Age Age_group Dukes_stage No_stage metastasis Gender Location
   <chr>     <dbl> <chr>     <chr>          <dbl>      <dbl> <chr>  <chr>   
 1 GSM877126    62 (60,70]   A                  1          0 Male   Left    
 2 GSM877127    77 (70,80]   B                  2          0 Male   Left    
 3 GSM877128    66 (60,70]   C                  3          0 Female Left    
 4 GSM877129    72 (70,80]   D                  4          1 Female Left    
 5 GSM877130    75 (70,80]   C                  3          0 Male   Left    
 6 GSM877131    61 (60,70]   A                  1          0 Male   Right   
 7 GSM877132    59 (50,60]   C                  3          0 Male   Left    
 8 GSM877133    50 (40,50]   B                  2          0 Male   Right   
 9 GSM877134    54 (50,60]   B                  2          0 Male   Right   
10 GSM877135    68 (60,70]   C                  3          0 Female Rectum  
# ℹ 52 more rows
# ℹ 1,940 more variables: DFS_event <dbl>, DFS_label <chr>, Adj_Radio <dbl>,
#   Adj_Chem <dbl>, DFS <dbl>, `117_at` <dbl>, `1007_s_at` <dbl>,
#   `1053_at` <dbl>, `121_at` <dbl>, `1255_g_at` <dbl>, `1294_at` <dbl>,
#   `1316_at` <dbl>, `1320_at` <dbl>, `1405_i_at` <dbl>, `1431_at` <dbl>,
#   `1438_at` <dbl>, `1487_at` <dbl>, `1494_f_at` <dbl>, `1552256_a_at` <dbl>,
#   `1552257_a_at` <dbl>, `1552258_at` <dbl>, `1552261_at` <dbl>, …
…
